Exploring Data
…
6/6/2020

##  Attaching packages  tidyverse 1.3.0 

##  ggplot2 3.3.1      purrr   0.3.4
##  tibble  3.0.1      dplyr   1.0.0
##  tidyr   1.1.0      stringr 1.4.0
##  readr   1.3.1      forcats 0.5.0

##  Conflicts  tidyverse_conflicts() 
## x dplyr::filter() masks stats::filter()
## x dplyr::lag()    masks stats::lag()

## # A tibble: 73,262 x 12
##    custid sex   is_employed income marital_status health_ins housing_type
##    <chr>  <fct> <lgl>        <dbl> <fct>          <lgl>      <fct>       
##  1 00000 Male  TRUE         22000 Never married  TRUE       Homeowner f
##  2 00000 Fema NA           23200 Divorced/Sepa TRUE       Rented      
##  3 00000 Fema TRUE         21000 Never married  TRUE       Homeowner w
##  4 00000 Fema NA           37770 Widowed        TRUE       Homeowner f
##  5 00000 Male  TRUE         39000 Divorced/Sepa TRUE       Rented      
##  6 00001 Male  NA           11100 Married        TRUE       Homeowner f
##  7 00001 Fema TRUE         25800 Married        FALSE      Rented      
##  8 00001 Fema NA           34600 Married        TRUE       Homeowner f
##  9 00001 Fema TRUE         25000 Never married  TRUE       Homeowner f
## 10 00001 Male  TRUE         31200 Married        TRUE       Homeowner w
## #  with 73,252 more rows, and 5 more variables: recent_move <lgl>,
## #   num_vehicles <dbl>, age <dbl>, state_of_res <fct>, gas_usage <dbl>
…
